<?xml version="1.0" encoding="UTF-8"?>
<svg width="133px" height="43px" viewBox="0 0 133 43" version="1.1" xmlns="http://www.w3.org/2000/svg" xmlns:xlink="http://www.w3.org/1999/xlink">
    <!-- Generator: Sketch 50.2 (55047) - http://www.bohemiancoding.com/sketch -->
    <title>logo medpay</title>
    <desc>Created with Sketch.</desc>
    <defs></defs>
    <g id="Flujo-de-pago" stroke="none" stroke-width="1" fill="none" fill-rule="evenodd">
        <g id="webpay-success" transform="translate(-215.000000, -33.000000)">
            <g id="logo-medpay" transform="translate(215.000000, 33.000000)">
                <g id="Group" fill="#002A73">
                    <path d="M24.5807407,1.57090909 L24.5807407,25.8327273 L20.7190123,25.8327273 L20.7190123,7.64509091 L13.9693827,25.8327273 L10.611358,25.8327273 L3.82814815,7.64509091 L3.82814815,25.8327273 L0,25.8327273 L0,1.57090909 L4.63407407,1.57090909 L12.3575309,20.9454545 L19.9466667,1.57090909 L24.5807407,1.57090909 Z M46.374321,15.2901818 C46.374321,15.9418214 46.3295478,16.5119976 46.24,17.0007273 L32.0019753,17.0007273 C32.0691361,18.978919 32.5952214,20.4450861 33.5802469,21.3992727 C34.5652724,22.3534593 35.7853425,22.8305455 37.2404938,22.8305455 C38.5165496,22.8305455 39.5967034,22.4930943 40.4809877,21.8181818 C41.3652719,21.1432694 41.9081471,20.2472783 42.1096296,19.1301818 L46.2064198,19.1301818 C45.9601634,20.4800067 45.4452714,21.6785402 44.6617284,22.7258182 C43.8781854,23.7730961 42.8595947,24.5934516 41.6059259,25.1869091 C40.3522571,25.7803666 38.9530941,26.0770909 37.4083951,26.0770909 C35.6174396,26.0770909 34.0335871,25.6814585 32.6567901,24.8901818 C31.2799931,24.0989051 30.1998393,22.9585529 29.4162963,21.4690909 C28.6327533,19.9796289 28.2409877,18.2225556 28.2409877,16.1978182 C28.2409877,14.1963536 28.6327533,12.4509165 29.4162963,10.9614545 C30.1998393,9.47199255 31.2799931,8.33164032 32.6567901,7.54036364 C34.0335871,6.74908695 35.6174396,6.35345455 37.4083951,6.35345455 C39.2217375,6.35345455 40.8055899,6.74326883 42.16,7.52290909 C43.5144101,8.30254935 44.5553873,9.3730841 45.282963,10.7345455 C46.0105386,12.0960068 46.374321,13.6145371 46.374321,15.2901818 Z M42.5125926,15.1854545 C42.5573665,13.928721 42.3502904,12.8756406 41.891358,12.0261818 C41.4324257,11.176723 40.8056007,10.5483657 40.0108642,10.1410909 C39.2161277,9.73381615 38.3486467,9.53018182 37.4083951,9.53018182 C35.9084699,9.53018182 34.6548199,10.007268 33.6474074,10.9614545 C32.639995,11.9156411 32.0915231,13.3236271 32.0019753,15.1854545 L42.5125926,15.1854545 Z M57.4893827,6.35345455 C59.1684035,6.35345455 60.6011463,6.78399569 61.7876543,7.64509091 C62.9741623,8.50618612 63.8024668,9.64653836 64.2725926,11.0661818 L64.2725926,0 L68.134321,0 L68.134321,25.8327273 L64.2725926,25.8327273 L64.2725926,21.3643636 C63.8024668,22.7840071 62.9741623,23.9243593 61.7876543,24.7854545 C60.6011463,25.6465498 59.1684035,26.0770909 57.4893827,26.0770909 C55.8775228,26.0770909 54.4391833,25.6814585 53.174321,24.8901818 C51.9094587,24.0989051 50.9188513,22.9585529 50.2024691,21.4690909 C49.486087,19.9796289 49.1279012,18.2225556 49.1279012,16.1978182 C49.1279012,14.1963536 49.486087,12.4509165 50.2024691,10.9614545 C50.9188513,9.47199255 51.9094587,8.33164032 53.174321,7.54036364 C54.4391833,6.74908695 55.8775228,6.35345455 57.4893827,6.35345455 Z M58.6646914,9.84436364 C56.9632837,9.84436364 55.6032973,10.4087216 54.5846914,11.5374545 C53.5660854,12.6661875 53.0567901,14.2196265 53.0567901,16.1978182 C53.0567901,18.1760099 53.5660854,19.7294489 54.5846914,20.8581818 C55.6032973,21.9869147 56.9632837,22.5512727 58.6646914,22.5512727 C59.7392646,22.5512727 60.7018888,22.2894572 61.5525926,21.7658182 C62.4032964,21.2421792 63.0748947,20.5032775 63.5674074,19.5490909 C64.0599202,18.5949043 64.3061728,17.4778246 64.3061728,16.1978182 C64.3061728,14.9410846 64.0599202,13.829823 63.5674074,12.864 C63.0748947,11.898177 62.4032964,11.1534572 61.5525926,10.6298182 C60.7018888,10.1061792 59.7392646,9.84436364 58.6646914,9.84436364 Z M76.562963,16.2676364 L76.562963,25.8327273 L72.7348148,25.8327273 L72.7348148,1.18690909 L80.7940741,1.18690909 C83.5252811,1.18690909 85.5792524,1.86181143 86.9560494,3.21163636 C88.3328464,4.56146129 89.0212346,6.41162461 89.0212346,8.76218182 C89.0212346,11.0894662 88.3160564,12.9221751 86.905679,14.2603636 C85.4953016,15.5985521 83.4581203,16.2676364 80.7940741,16.2676364 L76.562963,16.2676364 Z M80.3911111,13.0210909 C83.5476701,13.0210909 85.1259259,11.6014687 85.1259259,8.76218182 C85.1259259,7.3658112 84.7509503,6.30109457 84.0009877,5.568 C83.2510251,4.83490543 82.0477449,4.46836364 80.3911111,4.46836364 L76.562963,4.46836364 L76.562963,13.0210909 L80.3911111,13.0210909 Z M99.8004938,6.35345455 C101.479515,6.35345455 102.912257,6.78399569 104.098765,7.64509091 C105.285273,8.50618612 106.124771,9.64653836 106.617284,11.0661818 L106.617284,6.59781818 L110.445432,6.59781818 L110.445432,25.8327273 L106.617284,25.8327273 L106.617284,21.3643636 C106.124771,22.7840071 105.285273,23.9243593 104.098765,24.7854545 C102.912257,25.6465498 101.479515,26.0770909 99.8004938,26.0770909 C98.1886339,26.0770909 96.7502944,25.6814585 95.4854321,24.8901818 C94.2205698,24.0989051 93.2299624,22.9585529 92.5135802,21.4690909 C91.7971981,19.9796289 91.4390123,18.2225556 91.4390123,16.1978182 C91.4390123,14.1963536 91.7971981,12.4509165 92.5135802,10.9614545 C93.2299624,9.47199255 94.2205698,8.33164032 95.4854321,7.54036364 C96.7502944,6.74908695 98.1886339,6.35345455 99.8004938,6.35345455 Z M100.975802,9.84436364 C99.2743948,9.84436364 97.9144084,10.4087216 96.8958025,11.5374545 C95.8771966,12.6661875 95.3679012,14.2196265 95.3679012,16.1978182 C95.3679012,18.1760099 95.8771966,19.7294489 96.8958025,20.8581818 C97.9144084,21.9869147 99.2743948,22.5512727 100.975802,22.5512727 C102.050376,22.5512727 103.013,22.2894572 103.863704,21.7658182 C104.714408,21.2421792 105.386006,20.5032775 105.878519,19.5490909 C106.371031,18.5949043 106.617284,17.4778246 106.617284,16.1978182 C106.617284,14.9410846 106.371031,13.829823 105.878519,12.864 C105.386006,11.898177 104.714408,11.1534572 103.863704,10.6298182 C103.013,10.1061792 102.050376,9.84436364 100.975802,9.84436364 Z M117.228642,6.59781818 L122.769383,20.736 L127.90716,6.59781818 L132.171852,6.59781818 L120.98963,34.9789091 L116.724938,34.9789091 L120.720988,25.3789091 L112.93037,6.59781818 L117.228642,6.59781818 Z" id="MedPay"></path>
                </g>
                <text id="i-med" font-family="Poppins-Medium, Poppins" font-size="12" font-weight="400" fill="#00C676">
                    <tspan x="74" y="42">i-med</tspan>
                </text>
            </g>
        </g>
    </g>
</svg>